<svg id="Component_10_1" data-name="Component 10 – 1" xmlns="http://www.w3.org/2000/svg" width="394" height="170" viewBox="0 0 394 170">
  <circle id="Ellipse_69" data-name="Ellipse 69" cx="62.5" cy="62.5" r="62.5" fill="#ffe97c"/>
  <rect id="Rectangle_161" data-name="Rectangle 161" width="6.752" height="122.707" transform="translate(58.937 47.293)" fill="#ffe97c"/>
  <ellipse id="Ellipse_70" data-name="Ellipse 70" cx="63" cy="62.5" rx="63" ry="62.5" transform="translate(134)" fill="#efeac8"/>
  <rect id="Rectangle_162" data-name="Rectangle 162" width="6.752" height="122.707" transform="translate(193.225 47.293)" fill="#efeac8"/>
  <circle id="Ellipse_71" data-name="Ellipse 71" cx="62.5" cy="62.5" r="62.5" transform="translate(269)" fill="#efeac8"/>
  <rect id="Rectangle_163" data-name="Rectangle 163" width="6.752" height="122.707" transform="translate(327.513 47.293)" fill="#efeac8"/>
</svg>
