<svg id="Component_1_1" data-name="Component 1 – 1" xmlns="http://www.w3.org/2000/svg" width="491.545" height="212.209" viewBox="0 0 491.545 212.209">
  <g id="Group_70" data-name="Group 70" transform="translate(200.714 35.404)">
    <ellipse id="Ellipse_47" data-name="Ellipse 47" cx="10" cy="11" rx="10" ry="11" transform="translate(0.285 -0.404)" fill="#ffe97c"/>
    <line id="Line_46" data-name="Line 46" x2="8.003" y2="14.406" transform="translate(13.759 16.479)" fill="none" stroke="#ffe97c" stroke-width="3"/>
  </g>
  <g id="Group_71" data-name="Group 71" transform="translate(199.61 119.576)">
    <ellipse id="Ellipse_49" data-name="Ellipse 49" cx="18.5" cy="19" rx="18.5" ry="19" transform="translate(8.391 0.424)" fill="#ffe97c"/>
    <line id="Line_48" data-name="Line 48" x1="15.206" y2="6.003" transform="translate(0 26.33)" fill="none" stroke="#ffe97c" stroke-linecap="round" stroke-width="6"/>
  </g>
  <g id="Group_72" data-name="Group 72" transform="translate(278.793 86.361)">
    <circle id="Ellipse_50" data-name="Ellipse 50" cx="13" cy="13" r="13" transform="translate(2.207 -0.361)" fill="#ffe97c"/>
    <line id="Line_49" data-name="Line 49" x1="11.453" y2="14.966" transform="translate(0 17.25)" fill="none" stroke="#ffe97c" stroke-width="5"/>
  </g>
  <g id="Ellipse_60" data-name="Ellipse 60" transform="translate(418 34)" fill="#efeac8" stroke="#efeac8" stroke-width="1">
    <circle cx="8.5" cy="8.5" r="8.5" stroke="none"/>
    <circle cx="8.5" cy="8.5" r="8" fill="none"/>
  </g>
  <line id="Line_60" data-name="Line 60" x1="6.579" y2="6.203" transform="translate(416.368 44.81)" fill="none" stroke="#efeac8" stroke-width="5"/>
  <g id="Ellipse_61" data-name="Ellipse 61" transform="translate(407 93)" fill="#efeac8" stroke="#efeac8" stroke-width="1">
    <circle cx="9" cy="9" r="9" stroke="none"/>
    <circle cx="9" cy="9" r="8.5" fill="none"/>
  </g>
  <line id="Line_61" data-name="Line 61" x1="6.579" y2="11.005" transform="translate(416.368 91.63)" fill="none" stroke="#efeac8" stroke-width="3"/>
  <g id="Ellipse_62" data-name="Ellipse 62" transform="translate(477 22)" fill="#efeac8" stroke="#efeac8" stroke-width="1">
    <ellipse cx="5.5" cy="5" rx="5.5" ry="5" stroke="none"/>
    <ellipse cx="5.5" cy="5" rx="5" ry="4.5" fill="none"/>
  </g>
  <line id="Line_62" data-name="Line 62" x1="4.978" y1="0.34" transform="translate(486.397 29.264)" fill="none" stroke="#efeac8" stroke-width="5"/>
  <g id="Group_75" data-name="Group 75" transform="translate(-272 -1044)">
    <g id="Ellipse_63" data-name="Ellipse 63" transform="translate(595 1080)" fill="#efeac8" stroke="#efeac8" stroke-width="1">
      <ellipse cx="8.5" cy="9" rx="8.5" ry="9" stroke="none"/>
      <ellipse cx="8.5" cy="9" rx="8" ry="8.5" fill="none"/>
    </g>
    <line id="Line_63" data-name="Line 63" x1="6.178" y2="12.205" transform="translate(603.332 1076.008)" fill="none" stroke="#efeac8" stroke-width="3"/>
  </g>
  <circle id="Ellipse_64" data-name="Ellipse 64" cx="83.5" cy="83.5" r="83.5" fill="#ffe97c"/>
  <g id="Group_73" data-name="Group 73" transform="translate(340.402 129.282)">
    <g id="Ellipse_57" data-name="Ellipse 57" transform="translate(-0.402 8.718)" fill="#efeac8" stroke="#efeac8" stroke-width="1">
      <ellipse cx="9.5" cy="8.5" rx="9.5" ry="8.5" stroke="none"/>
      <ellipse cx="9.5" cy="8.5" rx="9" ry="8" fill="none"/>
    </g>
    <line id="Line_57" data-name="Line 57" x1="0.976" y2="11.405" transform="translate(9.476 0)" fill="none" stroke="#efeac8" stroke-width="3"/>
  </g>
  <g id="Ellipse_65" data-name="Ellipse 65" transform="translate(454 53)" fill="#efeac8" stroke="#efeac8" stroke-width="1">
    <circle cx="5" cy="5" r="5" stroke="none"/>
    <circle cx="5" cy="5" r="4.5" fill="none"/>
  </g>
  <line id="Line_64" data-name="Line 64" x1="4.978" y1="0.34" transform="translate(462.389 60.077)" fill="none" stroke="#efeac8" stroke-width="5"/>
  <g id="Group_74" data-name="Group 74" transform="translate(375.062 70.104)">
    <circle id="Ellipse_59" data-name="Ellipse 59" cx="5" cy="5" r="5" transform="translate(1.938 -0.104)" fill="#ffe97c"/>
    <line id="Line_59" data-name="Line 59" x1="8.624" y1="1.754" transform="translate(0 3.444)" fill="none" stroke="#ffe97c" stroke-width="2"/>
  </g>
  <rect id="Rectangle_159" data-name="Rectangle 159" width="9" height="163.563" transform="translate(92.263 55.432) rotate(20)" fill="#ffe97c"/>
</svg>
